<svg width="12" height="12" viewBox="0 0 12 12" fill="none" xmlns="http://www.w3.org/2000/svg">
<path d="M2.36529 11.8459H8.53672C9.771 11.8459 10.7653 10.8516 10.7653 9.61729V5.84586C10.7653 5.55443 10.5424 5.33157 10.251 5.33157C9.95958 5.33157 9.73672 5.55443 9.73672 5.84586V9.61729C9.73672 10.2859 9.20529 10.8173 8.53672 10.8173H2.36529C1.69672 10.8173 1.16529 10.2859 1.16529 9.61729V3.44586C1.16529 2.77728 1.69672 2.24586 2.36529 2.24586H6.13672C6.42815 2.24586 6.651 2.023 6.651 1.73157C6.651 1.44014 6.42815 1.21729 6.13672 1.21729H2.36529C1.131 1.21729 0.136719 2.21157 0.136719 3.44586V9.61729C0.136719 10.8516 1.131 11.8459 2.36529 11.8459Z" fill="#424242"/>
<path d="M11.8628 3.80578V0.668635C11.8628 0.63435 11.8628 0.600064 11.8457 0.565778C11.8457 0.548635 11.8457 0.531493 11.8285 0.531493C11.8285 0.51435 11.8114 0.497207 11.8114 0.480064C11.8114 0.462921 11.7942 0.445778 11.7771 0.428636C11.7771 0.411493 11.7599 0.39435 11.7599 0.39435C11.7257 0.342921 11.6742 0.291493 11.6228 0.257207L11.5885 0.240064C11.5542 0.188635 11.5199 0.171493 11.4857 0.171493L11.4342 0.15435C11.3999 0.15435 11.3657 0.137207 11.3314 0.137207H8.19423C7.9028 0.137207 7.67994 0.360064 7.67994 0.651493C7.67994 0.942921 7.9028 1.16578 8.19423 1.16578H10.0971L5.3828 5.89721C5.17709 6.10292 5.17709 6.42864 5.3828 6.61721C5.58852 6.82292 5.91423 6.82292 6.1028 6.61721L10.8342 1.90292V3.80578C10.8342 4.09721 11.0571 4.32006 11.3485 4.32006C11.6228 4.32006 11.8457 4.08006 11.8628 3.80578Z" fill="#424242"/>
</svg>
