<svg width="153" height="62" viewBox="0 0 153 62" fill="none" xmlns="http://www.w3.org/2000/svg">
<path d="M5.5 5H95" stroke="#1C785F" stroke-width="10" stroke-linecap="square"/>
<path d="M4.5 41.5H148.5" stroke="#D7D7D7" stroke-width="9" stroke-linecap="square"/>
<path d="M4.5 57.5H148.5" stroke="#D7D7D7" stroke-width="9" stroke-linecap="square"/>
<path d="M5.5 21H50" stroke="#1C785F" stroke-width="10" stroke-linecap="square"/>
</svg>
