<svg width="16" height="16" viewBox="0 0 16 16" fill="none" xmlns="http://www.w3.org/2000/svg">
<path d="M4.29673 15.4532C3.89802 15.1022 3.88619 14.4848 4.27116 14.1188L10.7071 8L4.27116 1.88117C3.88619 1.51517 3.89802 0.897766 4.29673 0.546775V0.546775C4.64834 0.237256 5.17808 0.247406 5.51757 0.570168L12.5702 7.27526C12.9848 7.66947 12.9848 8.33053 12.5702 8.72474L5.51757 15.4298C5.17808 15.7526 4.64834 15.7627 4.29673 15.4532V15.4532Z" fill="#1C785F"/>
</svg>
