<svg width="12" height="12" viewBox="0 0 12 12" fill="none" xmlns="http://www.w3.org/2000/svg">
<path d="M0.410081 3.22304C0.673324 2.924 1.13637 2.91513 1.41088 3.20386L6 8.03082L10.5891 3.20386C10.8636 2.91513 11.3267 2.924 11.5899 3.22304V3.22304C11.8221 3.48674 11.8144 3.88405 11.5724 4.13867L6.61867 9.3491C6.28216 9.70305 5.71784 9.70305 5.38133 9.3491L0.427626 4.13867C0.185554 3.88405 0.177942 3.48674 0.410081 3.22304V3.22304Z" fill="#424242"/>
</svg>
